…
``` r
shelters %>% 
  group_by(id, organization_name) %>% 
  count()
```

    ## # A tibble: 103,939 x 3
    ## # Groups:   id, organization_name [103,939]
    ##       id organization_name                           n
    ##    <dbl> <chr>                                   <int>
    ##  1     1 COSTI Immigrant Services                    3
    ##  2     2 Christie Ossington Neighbourhood Centre     1
    ##  3     2 COSTI Immigrant Services                    2
    ##  4     3 Christie Ossington Neighbourhood Centre     1
    ##  5     3 COSTI Immigrant Services                    2
    ##  6     4 Christie Refugee Welcome Centre, Inc.       1
    ##  7     4 COSTI Immigrant Services                    2
    ##  8     5 Christie Ossington Neighbourhood Centre     2
    ##  9     5 City of Toronto                             1
    ## 10     6 Christie Ossington Neighbourhood Centre     2
    ## # … with 103,929 more rows
…
